<svg id="Group_456" data-name="Group 456" xmlns="http://www.w3.org/2000/svg" width="60" height="60" viewBox="0 0 60 60">
    <circle id="Ellipse_11" data-name="Ellipse 11" cx="30" cy="30" r="30" fill="#5380a1"/>
    <g id="Icon_feather-arrow-left" data-name="Icon feather-arrow-left" transform="translate(25.744 16.383)">
        <path id="Path_276" data-name="Path 276" d="M7.5,34.309,20.9,20.9,7.5,7.5" transform="translate(-7.5 -7.5)"
              fill="none" stroke="#fff" stroke-linecap="round" stroke-linejoin="round" stroke-width="3"/>
    </g>
</svg>
