<svg xmlns="http://www.w3.org/2000/svg" width="27" height="27" viewBox="0 0 27 27">
    <g id="Group_2007" data-name="Group 2007" transform="translate(-1058.513 -1849.513)">
        <rect id="Rectangle_2118" data-name="Rectangle 2118" width="7" height="27"
              transform="translate(1068.513 1849.513)" fill="#1e3257"/>
        <rect id="Rectangle_2119" data-name="Rectangle 2119" width="7" height="27"
              transform="translate(1085.513 1859.513) rotate(90)" fill="#1e3257"/>
    </g>
</svg>
